…
``` r
dirs <- dir_ls(path_home("Desktop"), type = "directory")
(dt <- tibble(dirs = path_file(dirs)))
```

    ## # A tibble: 22 x 1
    ##    dirs           
    ##    <fs::path>     
    ##  1 ART_ASCO       
    ##  2 ASCO_2018      
    ##  3 BMS            
    ##  4 Benefit_2018   
    ##  5 CCGA           
    ##  6 Compare        
    ##  7 Conference_2018
    ##  8 Personal       
    ##  9 R              
    ## 10 RShiny         
    ## # ... with 12 more rows

``` r
dt %>%
  separate(dirs, into = c("day", "session", "topic"), sep = "_")
```

    ## Warning: Too few values at 20 locations: 1, 2, 3, 4, 5, 6, 7, 8, 9, 10, 11,
    ## 12, 13, 14, 15, 18, 19, 20, 21, 22

    ## # A tibble: 22 x 3
    ##    day        session topic
    ##  * <chr>      <chr>   <chr>
    ##  1 ART        ASCO    <NA> 
    ##  2 ASCO       2018    <NA> 
    ##  3 BMS        <NA>    <NA> 
    ##  4 Benefit    2018    <NA> 
    ##  5 CCGA       <NA>    <NA> 
    ##  6 Compare    <NA>    <NA> 
    ##  7 Conference 2018    <NA> 
    ##  8 Personal   <NA>    <NA> 
    ##  9 R          <NA>    <NA> 
    ## 10 RShiny     <NA>    <NA> 
    ## # ... with 12 more rows
…
